…
``` r
precip_df = 
  bind_rows(precip_2018, precip_2017)

month_df = 
  tibble(
    month = 1:12,
    month_name = month.name
  )

left_join(precip_df, month_df, by = "month") %>% 
  select(year, month_name, total, -month)
```

    ## # A tibble: 24 x 3
    ##     year month_name total
    ##    <dbl> <chr>      <dbl>
    ##  1  2018 January     0.94
    ##  2  2018 February    4.8 
    ##  3  2018 March       2.69
    ##  4  2018 April       4.69
    ##  5  2018 May         9.27
    ##  6  2018 June        4.77
    ##  7  2018 July       10.2 
    ##  8  2018 August      6.45
    ##  9  2018 September  10.5 
    ## 10  2018 October     2.12
    ## # … with 14 more rows
…
left_join(pols_df, month_df, by = "month") %>% 
  select(year, month_name, everything()) %>%
  mutate_at(vars(prez_gop, prez_dem), as.character) %>% 
  mutate(
    president = case_when(
      prez_dem == 1 ~ "dem",
      prez_gop == 1 ~ "gop",
      prez_gop == 2 ~ "gop"
    )
  ) %>% 
  select(-month, -date, -prez_gop, -prez_dem)
```

    ## # A tibble: 822 x 9
    ##     year month_name gov_gop sen_gop rep_gop gov_dem sen_dem rep_dem president
    ##    <int> <chr>        <dbl>   <dbl>   <dbl>   <dbl>   <dbl>   <dbl> <chr>    
    ##  1  1947 January         23      51     253      23      45     198 dem      
    ##  2  1947 February        23      51     253      23      45     198 dem      
    ##  3  1947 March           23      51     253      23      45     198 dem      
    ##  4  1947 April           23      51     253      23      45     198 dem      
    ##  5  1947 May             23      51     253      23      45     198 dem      
    ##  6  1947 June            23      51     253      23      45     198 dem      
    ##  7  1947 July            23      51     253      23      45     198 dem      
    ##  8  1947 August          23      51     253      23      45     198 dem      
    ##  9  1947 September       23      51     253      23      45     198 dem      
    ## 10  1947 October         23      51     253      23      45     198 dem      
    ## # … with 812 more rows
…
``` r
month_df = 
  tibble(
    month = 1:12,
    month_name = month.name
  )

left_join(snp_df, month_df, by = "month") %>% 
  select(year, month_name, close, -month, -day) %>%
  arrange(year, month_name)
```

    ## # A tibble: 787 x 3
    ##     year month_name close
    ##    <int> <chr>      <dbl>
    ##  1  1950 April       18.0
    ##  2  1950 August      18.4
    ##  3  1950 December    20.4
    ##  4  1950 February    17.2
    ##  5  1950 January     17.0
    ##  6  1950 July        17.8
    ##  7  1950 June        17.7
    ##  8  1950 March       17.3
    ##  9  1950 May         18.8
    ## 10  1950 November    19.5
    ## # … with 777 more rows
…
